Analyse 2 - Éducation et alphabétisation des membres des ménages
…
      all_continuous()  ~ "{mean} ({sd})",
      all_categorical() ~ "{n} ({p}%)"
    ),
    missing = "ifany"
  ) %>%
  add_p() %>%
  add_overall() %>%
  bold_labels() %>%
  modify_caption(
    paste0("**Tableau 2.** Profil éducatif par zone — ",
           "Nigeria GHS Panel Wave 4 (2018)")
  )
gt_data2

## # A tibble: 10,345 × 6
##    zone_label sexe_label niveau_educ   age alphabetise groupe_age_f
##    <fct>      <fct>      <ord>       <dbl> <fct>       <fct>       
##  1 Rural      Hommes     Tertiaire      55 Oui         46-60       
##  2 Rural      Femmes     Tertiaire      41 Oui         31-45       
##  3 Rural      Hommes     Tertiaire      52 Oui         46-60       
##  4 Rural      Femmes     Tertiaire      45 Oui         46-60       
##  5 Rural      Hommes     Tertiaire      60 Oui         60+         
##  6 Rural      Femmes     Tertiaire      49 Oui         46-60       
##  7 Rural      Hommes     Tertiaire      25 Oui         18-30       
##  8 Rural      Femmes     Tertiaire      23 Oui         18-30       
##  9 Rural      Hommes     Tertiaire      19 Oui         18-30       
## 10 Rural      Hommes     Tertiaire      72 Oui         60+         
## # ℹ 10,335 more rows
…
